p, -1, /login/login, *
p, 1, /nativeperson/getcareer, *
p, 1, /nativeperson/getpolitical, *
p, 1, /township/gettownshiplist, *
p, 1, /township/gettownshiplistn, *
p, 1, /nativeperson/geteducation, *
p, 1, /unit/getunitlist, *
p, 2, -1, -1
p, 3, -1, -1
p, 4, -1, -1
p, 5, -1, -1
p, 6, -1, -1
p, 7, -1, -1
p, 8, /police/searchpolice, PATCH
p, 8, /police/getpolicebyid, GET
p, 8, /police/getidbynumber, GET
p, 8, /police/getpolicebypage, GET
p, 9, -1, -1
p, 10, -1, -1
p, 11, -1, -1
p, 11, -1, -1
p, 12, -1, -1
p, 14, -1, -1
p, 15, -1, -1
p, 16, -1, -1
p, 17, /announcement/createannouncement, *
p, 18, -1, -1
p, 20, /news/createnews, *
p, 21, /news/createnews, *
p, 22, -1, -1
p, 23, -1, -1
p, 25, -1, -1
p, 26, -1, -1
p, 27, /policeaffairs/createpoliceaffairs, *
p, 28, -1, -1
p, 29, -1, -1
p, 30, /police/createpolice, POST
p, 31, /police/updatepolice, PATCH
p, 32, /police/deletepolicebyid, DELETE
p, 33, -1, -1
p, 34, /unit/getunitpolicebyid, *
p, 34, /unit/getunitbypage, *
p, 36, /unit/updateunit, *
p, 37, /unit/deleteunitbyid, *
p, 38, /unit/createunit, *
p, 39, -1, -1
p, 40, /township/createtownship, *
p, 40, /village/createvillage, *
p, 41, /village/*, *
p, 41, /unit/getunitlist, *
p, 41, /township/gettownshipbyid, *
p, 42, /township/gettownshipbypage, *
p, 42, /township/gettownshipbyid, *
p, 42, /village/getnativepersonbytownshipid, *
p, 42, /village/getvillagebytownshipid, *
p, 42, /village/getvillagebyid, *
p, 43, -1, -1
p, 45, /township/deletetownshipbyid, *
p, 46, -1, -1
p, 47, -1, -1
p, 48, /nativeperson/createnativeperson, *
p, 49, -1, -1
p, 50, /nativeperson/updatenativeperson, *
p, 51, /nativeperson/deletenativepersonbyid/:id, *
p, 52, /nativeperson/getnativepersonbyhousehold, *
p, 53, /nativeperson/getnativepersonbyidp, *
p, 54, /emphasisperson/createemphasisperson, *
p, 55, -1, -1
p, 56, /emphasiscontrol/getemphasiscontrolbynativepersonid, *
p, 56, /emphasiscontrol/deleteemphasiscontrolbyid/:id, *
p, 56, /emphasiscontrol/createemphasiscontrol, *
p, 57, /emphasisperson/getemphasispersonbyid, *
p, 58, /emphasisperson/updateemphasisperson, *
p, 59, /emphasisperson/deleteemphasispersonbyid/:id, *
p, 60, /nativeperson/createnativeperson, *
p, 61, -1, -1
p, 62, /flowperson/getflowpersonbyid, *
p, 63, /flowperson/updateflowperson, *
p, 64, /flowperson/deleteflowpersonbyid/:id, *
p, 65, -1, -1
p, 66, -1, -1
p, 67, /policeaffairs/getnumbytype, *
p, 68, /policeaffairs/getallcount, *
p, 68, /policeaffairs/getdetailcount, *
p, 68, /policeaffairs/getallcountyear, *
p, 69, /policeaffairs/getallcountrank, *
p, 69, /policeaffairs/getallcounttimerank, *
p, 70, -1, -1
p, 71, /user/updateuser, *
p, 72, /user/getusers, *
p, 73, /user/deleteuserbyid, *
p, 74, /user/createuser, *
p, 75, /role/updaterole, *
p, 76, /role/getroles, *
p, 77, /role/deleterolebyid, *
p, 78, /role/createrole, *
p, 79, /news/updatenews, *
p, 80, /news/updatenews, *
p, 81, /news/deletenewsbyid, *
p, 82, /news/updatenews, *
p, 83, /news/updatenews, *
p, 84, /news/deletenewsbyid, *
p, 85, /news/updatenews, *
p, 86, /announcement/updatereply, *
p, 86, /announcement/getannouncementbypage, *
p, 86, /announcement/getannouncementbysearch, *
p, 86, /announcement/getannouncementbyid, *
p, 87, /announcement/updateannouncement, *
p, 88, /announcement/deleteannouncementbyid, *
p, 89, /policeaffairs/updatepoliceaffairs, *
p, 89, /policeaffairs/getpoliceaffairsbysearch, *
p, 89, /policeaffairs/getpoliceaffairsbyid, *
p, 90, /policeaffairs/deletepoliceaffairsbyid, *
p, 91, /policeaffairs/getpoliceaffairsbysearch, *
p, 91, /policeaffairs/getpoliceaffairsbypage, *
p, 91, /policeaffairs/updatepoliceaffairs, *
p, 91, /policeaffairs/getpoliceaffairsbyid, *
p, 91, /reply/createreply, *
p, 91, /policeaffairs/getbasicdata, *
p, 92, /policeaffairs/deletepoliceaffairsbyid, *
p, 93, /policeaffairs/getpoliceaffairsbypage, *
p, 93, /policeaffairs/getpoliceaffairsbysearch, *
p, 93, /policeaffairs/updatepoliceaffairs, *
p, 93, /policeaffairs/getpoliceaffairsbyid, *
p, 93, /reply/createreply, *
p, 93, /policeaffairs/getbasicdata, *
p, 94, /policeaffairs/deletepoliceaffairsbyid, *
p, 95, /news/getnewsbypage, *
p, 95, /news/getnewsbysearch, *
p, 95, /news/getnewsbyid, *
p, 96, /news/getnewsbypage, *
p, 96, /news/getnewsbysearch, *
p, 96, /news/getnewsbyid, *
p, 97, /flowperson/getflowpersonbypage, *
p, 97, /flowperson/getflowpersonbysearch, *
p, 97, /township/gettownshiplist, *
p, 98, /township/gettownshiplist, *
p, 98, /nativeperson/getcareer, *
p, 98, /nativeperson/geteducation, *
p, 98, /nativeperson/getpolitical, *
p, 98, /nativeperson/getnativepersonbypage, *
p, 98, /nativeperson/getnativepersonbysearch, *
p, 99, /township/gettownshiplist, *
p, 99, /nativeperson/getcareer, *
p, 99, /emphasisperson/getemphasispersonbypage, *
p, 99, /emphasisperson/getemphasispersonbysearch, *
p, 100, /township/gettownshipbypage, *
p, 101, /graphics/*, *
p, 101, /township/gettownshiplist, *
p, role_1, /*, *
g, role_8, 4
g, role_1, 1
g, role_1, 2
g, role_1, 3
g, role_1, 4
g, role_1, 5
g, role_1, 6
g, role_1, 7
g, role_1, 8
g, role_1, 9
g, role_1, 10
g, role_1, 11
g, role_1, 12
g, role_1, 14
g, role_1, 15
g, role_1, 16
g, role_1, 17
g, role_1, 18
g, role_1, 20
g, role_1, 21
g, role_1, 22
g, role_1, 23
g, role_1, 25
g, role_1, 26
g, role_1, 27
g, role_1, 28
g, role_1, 29
g, role_1, 30
g, role_1, 31
g, role_1, 32
g, role_1, 33
g, role_1, 34
g, role_1, 36
g, role_1, 37
g, role_1, 38
g, role_1, 39
g, role_1, 40
g, role_1, 41
g, role_1, 42
g, role_1, 43
g, role_1, 44
g, role_1, 45
g, role_1, 46
g, role_1, 47
g, role_1, 48
g, role_1, 49
g, role_1, 50
g, role_1, 51
g, role_1, 52
g, role_1, 53
g, role_1, 54
g, role_1, 55
g, role_1, 56
g, role_1, 57
g, role_1, 58
g, role_1, 59
g, role_1, 60
g, role_1, 61
g, role_1, 62
g, role_1, 63
g, role_1, 64
g, role_1, 65
g, role_1, 66
g, role_1, 67
g, role_1, 68
g, role_1, 69
g, role_1, 70
g, role_1, 71
g, role_1, 72
g, role_1, 73
g, role_1, 74
g, role_1, 75
g, role_1, 76
g, role_1, 77
g, role_1, 78
g, role_1, 79
g, role_1, 80
g, role_1, 81
g, role_1, 82
g, role_1, 83
g, role_1, 84
g, role_1, 85
g, role_1, 86
g, role_1, 87
g, role_1, 88
g, role_1, 89
g, role_1, 90
g, role_1, 91
g, role_1, 92
g, role_1, 93
g, role_1, 94
g, role_6, 33
g, role_6, 34
g, role_6, 42
g, role_6, 43
g, role_6, 47
g, role_6, 52
g, role_6, 53
g, role_6, 56
g, role_6, 57
g, role_6, 62
g, role_6, 70
g, role_12, 1
g, role_12, 6
g, role_12, 34
g, role_13, 1
g, role_13, 6
g, role_13, 34
g, role_13, 7
g, role_13, 43
g, role_14, 1
g, role_14, 6
g, role_14, 34
g, role_14, 7
g, role_14, 43
g, role_14, 8
g, role_14, 29
g, role_15, 1
g, role_15, 6
g, role_15, 34
g, role_15, 7
g, role_15, 43
g, role_15, 8
g, role_15, 29
g, role_15, 9
g, role_15, 11
g, role_15, 53
g, role_16, 1
g, role_16, 6
g, role_16, 34
g, role_16, 7
g, role_16, 43
g, role_16, 8
g, role_16, 29
g, role_16, 9
g, role_16, 11
g, role_16, 53
g, role_16, 10
g, role_16, 62
g, role_17, 1
g, role_17, 6
g, role_17, 34
g, role_17, 7
g, role_17, 43
g, role_17, 8
g, role_17, 29
g, role_17, 9
g, role_17, 11
g, role_17, 53
g, role_17, 10
g, role_17, 62
g, role_17, 12
g, role_17, 57
g, role_19, 1
g, role_19, 6
g, role_19, 34
g, role_19, 7
g, role_19, 43
g, role_19, 8
g, role_19, 29
g, role_19, 9
g, role_19, 11
g, role_19, 53
g, role_19, 10
g, role_19, 62
g, role_19, 12
g, role_19, 57
g, role_19, 2
g, role_19, 15
g, role_19, 14
g, role_19, 66
g, role_19, 16
g, role_19, 67
g, role_19, 68
g, role_19, 69
g, role_19, 91
g, role_19, 92
g, role_9, 47
g, role_9, 1
g, role_9, 9
g, role_9, 86
g, role_9, 3
g, role_9, 18
g, role_9, 93
g, role_9, 2
g, role_9, 16
g, role_9, 65
g, role_9, 15
g, role_9, 14
g, role_20, 1
g, role_20, 2
g, role_20, 3
g, role_20, 6
g, role_20, 9
g, role_20, 7
g, role_20, 8
g, role_20, 10
g, role_20, 11
g, role_20, 12
g, role_20, 14
g, role_20, 15
g, role_20, 16
g, role_20, 18
g, role_20, 29
g, role_20, 33
g, role_20, 34
g, role_20, 42
g, role_20, 43
g, role_20, 53
g, role_20, 56
g, role_20, 57
g, role_20, 62
g, role_20, 66
g, role_20, 67
g, role_20, 68
g, role_20, 69
g, role_20, 86
g, role_20, 91
g, role_20, 92
g, role_20, 97
g, role_20, 98
g, role_20, 99